FRTB Prototype for IRSWaps
…
R Markdown

#setwd("c:/FRTB/_Portfolio_01") 
#load("myfile.RData")

Including Plots

fdsfsd

library(tidyquant)
library(ggplot2)
data(FANG)
FANG

## # A tibble: 4,032 x 8
##    symbol       date  open  high   low close    volume adjusted
##     <chr>     <date> <dbl> <dbl> <dbl> <dbl>     <dbl>    <dbl>
##  1     FB 2013-01-02 27.44 28.18 27.42 28.00  69846400    28.00
##  2     FB 2013-01-03 27.88 28.47 27.59 27.77  63140600    27.77
##  3     FB 2013-01-04 28.01 28.93 27.83 28.76  72715400    28.76
##  4     FB 2013-01-07 28.69 29.79 28.65 29.42  83781800    29.42
##  5     FB 2013-01-08 29.51 29.60 28.86 29.06  45871300    29.06
##  6     FB 2013-01-09 29.67 30.60 29.49 30.59 104787700    30.59
##  7     FB 2013-01-10 30.60 31.45 30.28 31.30  95316400    31.30
##  8     FB 2013-01-11 31.28 31.96 31.10 31.72  89598000    31.72
##  9     FB 2013-01-14 32.08 32.21 30.62 30.95  98892800    30.95
## 10     FB 2013-01-15 30.64 31.71 29.88 30.10 173242600    30.10
## # ... with 4,022 more rows
…
## Warning in to_period(xx, period = on.opts[[period]], ...): missing values
## removed from data

## Warning in to_period(xx, period = on.opts[[period]], ...): missing values
## removed from data

## Warning in to_period(xx, period = on.opts[[period]], ...): missing values
## removed from data

## Warning in to_period(xx, period = on.opts[[period]], ...): missing values
## removed from data

Quotes_annual_returns

## # A tibble: 44 x 3
## # Groups:   symbol [5]
##    symbol       date yearly.returns
##     <chr>     <date>          <dbl>
##  1 SIE.DE 2007-12-28    0.460146489
##  2 SIE.DE 2008-12-30   -0.506409762
##  3 SIE.DE 2009-12-30    0.265541778
##  4 SIE.DE 2010-12-30    0.493932716
##  5 SIE.DE 2011-12-30   -0.177903565
##  6 SIE.DE 2012-12-28    0.158037672
##  7 SIE.DE 2013-12-30    0.294400243
##  8 SIE.DE 2014-12-30   -0.026271425
##  9 SIE.DE 2015-12-30   -0.008504843
## 10 SIE.DE 2016-12-30    0.351729586
## # ... with 34 more rows
…
#Next, join the asset returns with the baseline returns by date.
############################### make date seq from: getsymbols_irregular data.R
####################
#########################

returns_joined <- left_join(Quotes_returns_monthly, 
                            baseline_returns_monthly,
                            by = "date")
returns_joined

## # A tibble: 510 x 4
## # Groups:   symbol [?]
##    symbol       date           Ra           Rb
##     <chr>     <date>        <dbl>        <dbl>
##  1 SIE.DE 2007-01-31  0.133533750  0.017145209
##  2 SIE.DE 2007-02-28 -0.056324969 -0.026969930
##  3 SIE.DE 2007-03-30  0.003386423  0.009961067
##  4 SIE.DE 2007-04-30  0.114721324  0.047169792
##  5 SIE.DE 2007-05-31  0.097981573  0.050368405
##  6 SIE.DE 2007-06-29  0.088120318 -0.001248183
##  7 SIE.DE 2007-07-31 -0.121990055 -0.001953312
##  8 SIE.DE 2007-08-31 -0.014747453  0.019178204
##  9 SIE.DE 2007-09-28  0.045883680  0.037784342
## 10 SIE.DE 2007-10-31 -0.028003003  0.053021784
## # ... with 500 more rows
…
##Example 4: Use TTR MACD to Visualize Moving Average Convergence Divergence

Quotes_macd <- Quotes %>%
    group_by(symbol) %>%
    tq_mutate(select     = close, 
              mutate_fun = MACD, 
              nFast      = 12, 
              nSlow      = 26, 
              nSig       = 9, 
              maType     = SMA) %>%
              mutate(diff = macd - signal) %>%
              select(-(open:volume))
Quotes_macd

## # A tibble: 10,262 x 6
## # Groups:   symbol [5]
##    symbol       date adjusted  macd signal  diff
##     <chr>     <date>    <dbl> <dbl>  <dbl> <dbl>
##  1 SIE.DE 2007-01-02 51.73898    NA     NA    NA
##  2 SIE.DE 2007-01-03 51.45278    NA     NA    NA
##  3 SIE.DE 2007-01-04 51.48006    NA     NA    NA
##  4 SIE.DE 2007-01-05 51.32332    NA     NA    NA
##  5 SIE.DE 2007-01-08 51.41192    NA     NA    NA
##  6 SIE.DE 2007-01-09 52.33184    NA     NA    NA
##  7 SIE.DE 2007-01-10 51.80030    NA     NA    NA
##  8 SIE.DE 2007-01-11 52.33184    NA     NA    NA
##  9 SIE.DE 2007-01-12 52.76794    NA     NA    NA
## 10 SIE.DE 2007-01-15 52.80197    NA     NA    NA
## # ... with 10,252 more rows
…
Quotes_macd <- Quotes %>%
    group_by(symbol) %>%
    tq_mutate(select     = close, 
              mutate_fun = RSI, 
              n          = 14, 
              maType     = SMA) 

Quotes_macd

## # A tibble: 10,262 x 9
## # Groups:   symbol [5]
##    symbol       date    open    high     low   close  volume adjusted
##     <chr>     <date>   <dbl>   <dbl>   <dbl>   <dbl>   <int>    <dbl>
##  1 SIE.DE 2007-01-02 73.7916 73.8885 73.1714 73.5784 3211837 51.73898
##  2 SIE.DE 2007-01-03 73.5009 73.6366 72.9583 73.1714 3728309 51.45278
##  3 SIE.DE 2007-01-04 72.8710 73.5978 72.6579 73.2102 4802257 51.48006
##  4 SIE.DE 2007-01-05 72.9001 74.0339 72.8710 72.9873 5841660 51.32332
##  5 SIE.DE 2007-01-08 73.4331 73.8885 72.6385 73.1133 4553569 51.41192
##  6 SIE.DE 2007-01-09 73.7819 75.5456 73.2393 74.4215 8882191 52.33184
##  7 SIE.DE 2007-01-10 73.8595 74.3633 73.3556 73.6656 5438704 51.80030
##  8 SIE.DE 2007-01-11 74.0339 74.5959 73.0455 74.4215 5908520 52.33184
##  9 SIE.DE 2007-01-12 74.4215 75.3421 74.2374 75.0417 5062112 52.76794
## 10 SIE.DE 2007-01-15 75.4390 75.5165 75.0901 75.0901 2537080 52.80197
## # ... with 10,252 more rows, and 1 more variables: SMA <dbl>
…
Quotes_max_by_qtr <- Quotes %>%
    group_by(symbol) %>%
    tq_transmute(select = adjusted,
                 mutate_fun = apply.quarterly,
                 FUN = max,
                 col_rename = "max.close") %>%
                 mutate(year.qtr = paste0(year(date), "-Q", quarter(date))) %>%
                 select(-date)
Quotes_max_by_qtr

## # A tibble: 172 x 3
## # Groups:   symbol [5]
##    symbol max.close year.qtr
##     <chr>     <dbl>    <chr>
##  1 SIE.DE  59.33495  2007-Q1
##  2 SIE.DE  74.51881  2007-Q2
##  3 SIE.DE  77.14925  2007-Q3
##  4 SIE.DE  75.54649  2007-Q4
##  5 SIE.DE  74.45650  2008-Q1
##  6 SIE.DE  54.57444  2008-Q2
##  7 SIE.DE  56.18833  2008-Q3
##  8 SIE.DE  45.11065  2008-Q4
##  9 SIE.DE  39.77352  2009-Q1
## 10 SIE.DE  40.41458  2009-Q2
## # ... with 162 more rows
…
Quotes_min_by_qtr <- Quotes %>%
    group_by(symbol) %>%
    tq_transmute(select = adjusted,
                 mutate_fun = apply.quarterly,
                 FUN = min,
                 col_rename = "min.close") %>%
                 mutate(year.qtr = paste0(year(date), "-Q", quarter(date))) %>%
                 select(-date)

Quotes_by_qtr <- left_join(Quotes_max_by_qtr, Quotes_min_by_qtr,
                         by = c("symbol" = "symbol",
                                "year.qtr" = "year.qtr"))
Quotes_by_qtr

## # A tibble: 172 x 4
## # Groups:   symbol [?]
##    symbol max.close year.qtr min.close
##     <chr>     <dbl>    <chr>     <dbl>
##  1 SIE.DE  59.33495  2007-Q1  51.32332
##  2 SIE.DE  74.51881  2007-Q2  55.46950
##  3 SIE.DE  77.14925  2007-Q3  59.88318
##  4 SIE.DE  75.54649  2007-Q4  62.28430
##  5 SIE.DE  74.45650  2008-Q1  47.01475
##  6 SIE.DE  54.57444  2008-Q2  48.06230
##  7 SIE.DE  56.18833  2008-Q3  45.94586
##  8 SIE.DE  45.11065  2008-Q4  25.14244
##  9 SIE.DE  39.77352  2009-Q1  28.19250
## 10 SIE.DE  40.41458  2009-Q2  31.58057
## # ... with 162 more rows
…
#Second, get baseline asset returns, which is the exact same as Steps 1B and 2B from the Single Portfolio example.
#baseline_returns_monthly <- "XLK" %>%
#baseline_returns_monthly <- "GDAXI" %>%
#    tq_get(get  = "stock.prices",
#           from = "2010-01-01",
 #          to   = "2015-12-31") %>%
  #         tq_transmute(select     = adjusted, 
   #              mutate_fun = periodReturn, 
    #             period     = "monthly", 
      #           col_rename = "Rb")

baseline_returns_monthly

## # A tibble: 130 x 2
##          date           Rb
##        <date>        <dbl>
##  1 2007-01-31  0.017145209
##  2 2007-02-28 -0.026969930
##  3 2007-03-30  0.009961067
##  4 2007-04-30  0.047169792
##  5 2007-05-31  0.050368405
##  6 2007-06-29 -0.001248183
##  7 2007-07-31 -0.001953312
##  8 2007-08-31  0.019178204
##  9 2007-09-28  0.037784342
## 10 2007-10-31  0.053021784
## # ... with 120 more rows

stock_returns_monthly_multi <- stock_returns_monthly %>%
    tq_repeat_df(n = n)

## Ungrouping data frame groups: symbol

stock_returns_monthly_multi

## # A tibble: 1,530 x 4
## # Groups:   portfolio [3]
##    portfolio symbol       date           Ra
##        <int>  <chr>     <date>        <dbl>
##  1         1 SIE.DE 2007-01-31  0.133533750
##  2         1 SIE.DE 2007-02-28 -0.056324969
##  3         1 SIE.DE 2007-03-30  0.003386423
##  4         1 SIE.DE 2007-04-30  0.114721324
##  5         1 SIE.DE 2007-05-31  0.097981573
##  6         1 SIE.DE 2007-06-29  0.088120318
##  7         1 SIE.DE 2007-07-31 -0.121990055
##  8         1 SIE.DE 2007-08-31 -0.014747453
##  9         1 SIE.DE 2007-09-28  0.045883680
## 10         1 SIE.DE 2007-10-31 -0.028003003
## # ... with 1,520 more rows
…
## Warning in check_weights(weights, assets_col, map, x): The assets in
## weights does not match the assets in data.

## Warning in PerformanceAnalytics::Return.portfolio(., weights = weights, :
## NA's detected: filling NA's with zeros

## Warning in check_weights(weights, assets_col, map, x): The assets in
## weights does not match the assets in data.

## Warning in PerformanceAnalytics::Return.portfolio(., weights = weights, :
## NA's detected: filling NA's with zeros

portfolio_returns_monthly_multi

## # A tibble: 462 x 3
## # Groups:   portfolio [3]
##    portfolio       date           Ra
##        <dbl>     <date>        <dbl>
##  1         1 2007-01-31 -0.206609271
##  2         1 2007-02-28 -0.036313241
##  3         1 2007-03-30  0.038257079
##  4         1 2007-04-30  0.093644784
##  5         1 2007-05-31  0.020467780
##  6         1 2007-06-29  0.003314115
##  7         1 2007-07-31 -0.096256269
##  8         1 2007-08-31 -0.033392052
##  9         1 2007-09-28 -0.020801658
## 10         1 2007-10-31  0.009719540
## # ... with 452 more rows

RaRb_multiple_portfolio <- left_join(portfolio_returns_monthly_multi, 
                                     baseline_returns_monthly,
                                     by = "date")
RaRb_multiple_portfolio

## # A tibble: 462 x 4
## # Groups:   portfolio [?]
##    portfolio       date           Ra           Rb
##        <dbl>     <date>        <dbl>        <dbl>
##  1         1 2007-01-31 -0.206609271  0.017145209
##  2         1 2007-02-28 -0.036313241 -0.026969930
##  3         1 2007-03-30  0.038257079  0.009961067
##  4         1 2007-04-30  0.093644784  0.047169792
##  5         1 2007-05-31  0.020467780  0.050368405
##  6         1 2007-06-29  0.003314115 -0.001248183
##  7         1 2007-07-31 -0.096256269 -0.001953312
##  8         1 2007-08-31 -0.033392052  0.019178204
##  9         1 2007-09-28 -0.020801658  0.037784342
## 10         1 2007-10-31  0.009719540  0.053021784
## # ... with 452 more rows
…
