TidyQuant
…
## Warning: x = 'KBC.DE', get = 'stock.prices': Error: KBC.DE download failed after two attempts. Error message:
## HTTP error 404.
##  Removing KBC.DE.

## Warning in to_period(xx, period = on.opts[[period]], ...): missing values
## removed from data

## Warning in to_period(xx, period = on.opts[[period]], ...): missing values
## removed from data

Ra

## # A tibble: 590 x 3
## # Groups:   symbol [9]
##    symbol       date            Ra
##     <chr>     <date>         <dbl>
##  1  GDAXI 2010-01-29 -0.0726666634
##  2  GDAXI 2010-02-26 -0.0018417659
##  3  GDAXI 2010-03-31  0.0991504535
##  4  GDAXI 2010-04-30 -0.0029007013
##  5  GDAXI 2010-05-31 -0.0279300017
##  6  GDAXI 2010-06-30  0.0001995097
##  7  GDAXI 2010-07-30  0.0305841225
##  8  GDAXI 2010-08-31 -0.0362314703
##  9  GDAXI 2010-09-30  0.0512723230
## 10  GDAXI 2010-10-29  0.0597766737
## # ... with 580 more rows
…
Rb <- "GDAXI" %>%
    tq_get(get  = "stock.prices",
           from = "2010-01-01",
           to   = "2015-12-31") %>%
    tq_transmute(select     = adjusted, 
                 mutate_fun = periodReturn, 
                 period     = "monthly", 
                 col_rename = "Rb")

## Warning in to_period(xx, period = on.opts[[period]], ...): missing values
## removed from data

Rb

## # A tibble: 72 x 2
##          date            Rb
##        <date>         <dbl>
##  1 2010-01-29 -0.0726666634
##  2 2010-02-26 -0.0018417659
##  3 2010-03-31  0.0991504535
##  4 2010-04-30 -0.0029007013
##  5 2010-05-31 -0.0279300017
##  6 2010-06-30  0.0001995097
##  7 2010-07-30  0.0305841225
##  8 2010-08-31 -0.0362314703
##  9 2010-09-30  0.0512723230
## 10 2010-10-29  0.0597766737
## # ... with 62 more rows

RaRb <- left_join(Ra, Rb, by = c("date" = "date"))
RaRb

## # A tibble: 590 x 4
## # Groups:   symbol [?]
##    symbol       date            Ra            Rb
##     <chr>     <date>         <dbl>         <dbl>
##  1  GDAXI 2010-01-29 -0.0726666634 -0.0726666634
##  2  GDAXI 2010-02-26 -0.0018417659 -0.0018417659
##  3  GDAXI 2010-03-31  0.0991504535  0.0991504535
##  4  GDAXI 2010-04-30 -0.0029007013 -0.0029007013
##  5  GDAXI 2010-05-31 -0.0279300017 -0.0279300017
##  6  GDAXI 2010-06-30  0.0001995097  0.0001995097
##  7  GDAXI 2010-07-30  0.0305841225  0.0305841225
##  8  GDAXI 2010-08-31 -0.0362314703 -0.0362314703
##  9  GDAXI 2010-09-30  0.0512723230  0.0512723230
## 10  GDAXI 2010-10-29  0.0597766737  0.0597766737
## # ... with 580 more rows
…
## Warning: x = 'SSMI', get = 'stock.prices': Error: SSMI download failed after two attempts. Error message:
## HTTP error 404.
##  Removing SSMI.

## Warning: x = 'KBC.DE', get = 'stock.prices': Error: KBC.DE download failed after two attempts. Error message:
## HTTP error 404.
##  Removing KBC.DE.

stock_prices

## # A tibble: 12,308 x 8
##    symbol       date    open    high     low   close    volume adjusted
##     <chr>     <date>   <dbl>   <dbl>   <dbl>   <dbl>     <dbl>    <dbl>
##  1  GDAXI 2010-01-04 5975.52 6048.30 5974.43 6048.30 104344400  6048.30
##  2  GDAXI 2010-01-05 6043.94 6058.02 6015.67 6031.86 117572100  6031.86
##  3  GDAXI 2010-01-06 6032.39 6047.57 5997.09 6034.33 108742400  6034.33
##  4  GDAXI 2010-01-07 6016.80 6037.57 5961.25 6019.36 133704300  6019.36
##  5  GDAXI 2010-01-08 6028.62 6053.04 5972.24 6037.61 126099000  6037.61
##  6  GDAXI 2010-01-11 6057.93 6094.26 6031.14 6040.50 103675800  6040.50
##  7  GDAXI 2010-01-12 6039.39 6055.56 5924.72 5943.00 129269700  5943.00
##  8  GDAXI 2010-01-13 5937.17 5974.44 5925.24 5963.14 114728400  5963.14
##  9  GDAXI 2010-01-14 5999.08 6009.91 5951.69 5988.88 115453700  5988.88
## 10  GDAXI 2010-01-15 5996.56 6025.36 5866.84 5875.97 156035200  5875.97
## # ... with 12,298 more rows
…
## Warning in to_period(xx, period = on.opts[[period]], ...): missing values
## removed from data

## Warning in to_period(xx, period = on.opts[[period]], ...): missing values
## removed from data

stock_returns_monthly

## # A tibble: 590 x 3
## # Groups:   symbol [9]
##    symbol       date            Ra
##     <chr>     <date>         <dbl>
##  1  GDAXI 2010-01-29 -0.0726666634
##  2  GDAXI 2010-02-26 -0.0018417659
##  3  GDAXI 2010-03-31  0.0991504535
##  4  GDAXI 2010-04-30 -0.0029007013
##  5  GDAXI 2010-05-31 -0.0279300017
##  6  GDAXI 2010-06-30  0.0001995097
##  7  GDAXI 2010-07-30  0.0305841225
##  8  GDAXI 2010-08-31 -0.0362314703
##  9  GDAXI 2010-09-30  0.0512723230
## 10  GDAXI 2010-10-29  0.0597766737
## # ... with 580 more rows
…
## Warning in check_weights(weights, assets_col, map, x): The assets in
## weights does not match the assets in data.

## Warning in PerformanceAnalytics::Return.portfolio(., weights = weights, :
## NA's detected: filling NA's with zeros

#3B: Merging Ra and Rb

RaRb_single_portfolio <- left_join(portfolio_returns_monthly, 
                                   Rb,
                                   by = "date")
RaRb_single_portfolio

## # A tibble: 73 x 3
##          date            Ra            Rb
##        <date>         <dbl>         <dbl>
##  1 2010-01-29 -0.5363333317 -0.0726666634
##  2 2010-02-26 -0.0018417659 -0.0018417659
##  3 2010-03-31  0.0991504535  0.0991504535
##  4 2010-04-30 -0.0029007013 -0.0029007013
##  5 2010-05-31 -0.0279300017 -0.0279300017
##  6 2010-06-30  0.0001995097  0.0001995097
##  7 2010-07-30  0.0305841225  0.0305841225
##  8 2010-08-31 -0.0362314703 -0.0362314703
##  9 2010-09-30  0.0512723230  0.0512723230
## 10 2010-10-29  0.0597766737  0.0597766737
## # ... with 63 more rows
…
## Warning in to_period(xx, period = on.opts[[period]], ...): missing values
## removed from data

stock_returns_monthly_multi <- stock_returns_monthly %>%
    tq_repeat_df(n = n)

## Ungrouping data frame groups: symbol

stock_returns_monthly_multi

## # A tibble: 1,770 x 4
## # Groups:   portfolio [3]
##    portfolio symbol       date            Ra
##        <int>  <chr>     <date>         <dbl>
##  1         1  GDAXI 2010-01-29 -0.0726666634
##  2         1  GDAXI 2010-02-26 -0.0018417659
##  3         1  GDAXI 2010-03-31  0.0991504535
##  4         1  GDAXI 2010-04-30 -0.0029007013
##  5         1  GDAXI 2010-05-31 -0.0279300017
##  6         1  GDAXI 2010-06-30  0.0001995097
##  7         1  GDAXI 2010-07-30  0.0305841225
##  8         1  GDAXI 2010-08-31 -0.0362314703
##  9         1  GDAXI 2010-09-30  0.0512723230
## 10         1  GDAXI 2010-10-29  0.0597766737
## # ... with 1,760 more rows
…
## Warning in check_weights(weights, assets_col, map, x): The assets in
## weights does not match the assets in data.

## Warning in PerformanceAnalytics::Return.portfolio(., weights = weights, :
## NA's detected: filling NA's with zeros

## Warning in check_weights(weights, assets_col, map, x): The assets in
## weights does not match the assets in data.

## Warning in PerformanceAnalytics::Return.portfolio(., weights = weights, :
## NA's detected: filling NA's with zeros

portfolio_returns_monthly_multi

## # A tibble: 219 x 3
## # Groups:   portfolio [3]
##    portfolio       date            Ra
##        <int>     <date>         <dbl>
##  1         1 2010-01-29 -0.2800938518
##  2         1 2010-02-26 -0.0035738546
##  3         1 2010-03-31  0.0481715238
##  4         1 2010-04-30 -0.0086937900
##  5         1 2010-05-31 -0.0300887763
##  6         1 2010-06-30  0.0001360722
##  7         1 2010-07-30 -0.0063899033
##  8         1 2010-08-31 -0.0137486458
##  9         1 2010-09-30  0.0519446800
## 10         1 2010-10-29  0.0731980358
## # ... with 209 more rows

RaRb_multiple_portfolio <- left_join(portfolio_returns_monthly_multi, 
                                     baseline_returns_monthly,
                                     by = "date")
RaRb_multiple_portfolio

## # A tibble: 219 x 4
## # Groups:   portfolio [?]
##    portfolio       date            Ra            Rb
##        <int>     <date>         <dbl>         <dbl>
##  1         1 2010-01-29 -0.2800938518 -0.0726666634
##  2         1 2010-02-26 -0.0035738546 -0.0018417659
##  3         1 2010-03-31  0.0481715238  0.0991504535
##  4         1 2010-04-30 -0.0086937900 -0.0029007013
##  5         1 2010-05-31 -0.0300887763 -0.0279300017
##  6         1 2010-06-30  0.0001360722  0.0001995097
##  7         1 2010-07-30 -0.0063899033  0.0305841225
##  8         1 2010-08-31 -0.0137486458 -0.0362314703
##  9         1 2010-09-30  0.0519446800  0.0512723230
## 10         1 2010-10-29  0.0731980358  0.0597766737
## # ... with 209 more rows
…
packages

https://cran.r-project.org/web/packages/tidyquant/vignettes/TQ02-quant-integrations-in-tidyquant.html

Part 2

Using csv input

tq_transmute_fun_options()$TTR

library(tidyquant)
data(FANG)
FANG

## # A tibble: 4,032 x 8
##    symbol       date  open  high   low close    volume adjusted
##     <chr>     <date> <dbl> <dbl> <dbl> <dbl>     <dbl>    <dbl>
##  1     FB 2013-01-02 27.44 28.18 27.42 28.00  69846400    28.00
##  2     FB 2013-01-03 27.88 28.47 27.59 27.77  63140600    27.77
##  3     FB 2013-01-04 28.01 28.93 27.83 28.76  72715400    28.76
##  4     FB 2013-01-07 28.69 29.79 28.65 29.42  83781800    29.42
##  5     FB 2013-01-08 29.51 29.60 28.86 29.06  45871300    29.06
##  6     FB 2013-01-09 29.67 30.60 29.49 30.59 104787700    30.59
##  7     FB 2013-01-10 30.60 31.45 30.28 31.30  95316400    31.30
##  8     FB 2013-01-11 31.28 31.96 31.10 31.72  89598000    31.72
##  9     FB 2013-01-14 32.08 32.21 30.62 30.95  98892800    30.95
## 10     FB 2013-01-15 30.64 31.71 29.88 30.10 173242600    30.10
## # ... with 4,022 more rows
…
## Warning in to_period(xx, period = on.opts[[period]], ...): missing values
## removed from data

## Warning in to_period(xx, period = on.opts[[period]], ...): missing values
## removed from data

FANG_annual_returns

## # A tibble: 22 x 3
## # Groups:   symbol [2]
##    symbol       date yearly.returns
##     <chr>     <date>          <dbl>
##  1 SIE.DE 2007-12-28    0.460146489
##  2 SIE.DE 2008-12-30   -0.506409762
##  3 SIE.DE 2009-12-30    0.265541778
##  4 SIE.DE 2010-12-30    0.493932716
##  5 SIE.DE 2011-12-30   -0.177903565
##  6 SIE.DE 2012-12-28    0.158037672
##  7 SIE.DE 2013-12-30    0.294400243
##  8 SIE.DE 2014-12-30   -0.026271425
##  9 SIE.DE 2015-12-30   -0.008504843
## 10 SIE.DE 2016-12-30    0.351729586
## # ... with 12 more rows
…
FANG %>%
    group_by(symbol) %>%
    tq_transmute(select     = open:volume, 
                 mutate_fun = to.period, 
                 period     = "months")

## Warning in fun_transmute(., OHLC = FALSE, ...): missing values removed from
## data

## Warning in fun_transmute(., OHLC = FALSE, ...): missing values removed from
## data

## # A tibble: 256 x 7
## # Groups:   symbol [2]
##    symbol       date    open    high     low    close volume
##     <chr>     <date>   <dbl>   <dbl>   <dbl>    <dbl>  <dbl>
##  1 SIE.DE 2007-01-31 114.567 116.367 114.337  81.8927  24727
##  2 SIE.DE 2007-02-28 108.248 109.466 104.459  77.2801  25610
##  3 SIE.DE 2007-03-30 107.977 109.236 107.071  77.5418  19426
##  4 SIE.DE 2007-04-30 121.468 122.862 120.697  86.4375  21493
##  5 SIE.DE 2007-05-31 132.333 132.739 131.102  94.9068  22310
##  6 SIE.DE 2007-06-29 143.428 144.444 142.211 103.2700  20839
##  7 SIE.DE 2007-07-31 129.302 130.574 126.041  90.6721  25046
##  8 SIE.DE 2007-08-31 122.889 125.162 122.523  89.3349  20923
##  9 SIE.DE 2007-09-28 129.938 132.401 129.356  93.4339  21281
## 10 SIE.DE 2007-10-31 126.582 127.110 125.284  90.8175  18397
## # ... with 246 more rows
…
## Warning in to_period(xx, period = on.opts[[period]], ...): missing values
## removed from data

#Next, join the asset returns with the baseline returns by date.
############################### make date seq from: getsymbols_irregular data.R
####################
#########################

returns_joined <- left_join(FANG_returns_monthly, 
                            baseline_returns_monthly,
                            by = "date")
returns_joined

## # A tibble: 256 x 4
## # Groups:   symbol [?]
##    symbol       date monthly.returns.x monthly.returns.y
##     <chr>     <date>             <dbl>             <dbl>
##  1 SIE.DE 2007-01-31       0.133533750                NA
##  2 SIE.DE 2007-02-28      -0.056324969                NA
##  3 SIE.DE 2007-03-30       0.003386423                NA
##  4 SIE.DE 2007-04-30       0.114721324                NA
##  5 SIE.DE 2007-05-31       0.097981573                NA
##  6 SIE.DE 2007-06-29       0.088120318                NA
##  7 SIE.DE 2007-07-31      -0.121990055                NA
##  8 SIE.DE 2007-08-31      -0.014747453                NA
##  9 SIE.DE 2007-09-28       0.045883680                NA
## 10 SIE.DE 2007-10-31      -0.028003003                NA
## # ... with 246 more rows
…
##Example 4: Use TTR MACD to Visualize Moving Average Convergence Divergence

FANG_macd <- FANG %>%
    group_by(symbol) %>%
    tq_mutate(select     = close, 
              mutate_fun = MACD, 
              nFast      = 12, 
              nSlow      = 26, 
              nSig       = 9, 
              maType     = SMA) %>%
    mutate(diff = macd - signal) %>%
    select(-(open:volume))
FANG_macd

## # A tibble: 5,388 x 6
## # Groups:   symbol [2]
##    symbol       date adjusted  macd signal  diff
##     <chr>     <date>    <dbl> <dbl>  <dbl> <dbl>
##  1 SIE.DE 2007-01-02 51.73898    NA     NA    NA
##  2 SIE.DE 2007-01-03 51.45278    NA     NA    NA
##  3 SIE.DE 2007-01-04 51.48006    NA     NA    NA
##  4 SIE.DE 2007-01-05 51.32332    NA     NA    NA
##  5 SIE.DE 2007-01-08 51.41192    NA     NA    NA
##  6 SIE.DE 2007-01-09 52.33184    NA     NA    NA
##  7 SIE.DE 2007-01-10 51.80030    NA     NA    NA
##  8 SIE.DE 2007-01-11 52.33184    NA     NA    NA
##  9 SIE.DE 2007-01-12 52.76794    NA     NA    NA
## 10 SIE.DE 2007-01-15 52.80197    NA     NA    NA
## # ... with 5,378 more rows
…
FANG_macd <- FANG %>%
    group_by(symbol) %>%
    tq_mutate(select     = close, 
              mutate_fun = RSI, 
              n          = 14, 
              maType     = SMA) 

FANG_macd

## # A tibble: 5,388 x 9
## # Groups:   symbol [2]
##    symbol       date    open    high     low   close volume adjusted   SMA
##     <chr>     <date>   <dbl>   <dbl>   <dbl>   <dbl>  <int>    <dbl> <dbl>
##  1 SIE.DE 2007-01-02 104.940 105.077 104.058 73.5784  16751 51.73898    NA
##  2 SIE.DE 2007-01-03 104.526 104.719 103.755 73.1714  17750 51.45278    NA
##  3 SIE.DE 2007-01-04 103.630 104.664 103.327 73.2102  19358 51.48006    NA
##  4 SIE.DE 2007-01-05 103.672 105.284 103.630 72.9873  20605 51.32332    NA
##  5 SIE.DE 2007-01-08 104.430 105.077 103.300 73.1133  19018 51.41192    NA
##  6 SIE.DE 2007-01-09 104.926 107.434 104.154 74.4215  23280 52.33184    NA
##  7 SIE.DE 2007-01-10 105.036 105.753 104.320 73.6656  20150 51.80030    NA
##  8 SIE.DE 2007-01-11 105.284 106.083 103.879 74.4215  20673 52.33184    NA
##  9 SIE.DE 2007-01-12 105.835 107.145 105.574 75.0417  19687 52.76794    NA
## 10 SIE.DE 2007-01-15 107.282 107.393 106.786 75.0901  14991 52.80197    NA
## # ... with 5,378 more rows
…
