TidyQuant
…
library(tidyquant)

Ra <- c("AAPL", "GOOG", "NFLX") %>%
    tq_get(get  = "stock.prices",
           from = "2010-01-01",
           to   = "2015-12-31") %>%
    group_by(symbol) %>%
    tq_transmute(select     = adjusted, 
                 mutate_fun = periodReturn, 
                 period     = "monthly", 
                 col_rename = "Ra")
Ra

## # A tibble: 216 x 3
## # Groups:   symbol [3]
##    symbol       date          Ra
##     <chr>     <date>       <dbl>
##  1   AAPL 2010-01-29 -0.10256522
##  2   AAPL 2010-02-26  0.06539603
##  3   AAPL 2010-03-31  0.14847050
##  4   AAPL 2010-04-30  0.11102119
##  5   AAPL 2010-05-28 -0.01612465
##  6   AAPL 2010-06-30 -0.02082666
##  7   AAPL 2010-07-30  0.02274065
##  8   AAPL 2010-08-31 -0.05500497
##  9   AAPL 2010-09-30  0.16721506
## 10   AAPL 2010-10-29  0.06072281
## # ... with 206 more rows

Rb <- "XLK" %>%
    tq_get(get  = "stock.prices",
           from = "2010-01-01",
           to   = "2015-12-31") %>%
    tq_transmute(select     = adjusted, 
                 mutate_fun = periodReturn, 
                 period     = "monthly", 
                 col_rename = "Rb")
Rb

## # A tibble: 72 x 2
##          date          Rb
##        <date>       <dbl>
##  1 2010-01-29 -0.09926939
##  2 2010-02-26  0.03482850
##  3 2010-03-31  0.06839781
##  4 2010-04-30  0.01255411
##  5 2010-05-28 -0.07481841
##  6 2010-06-30 -0.05396661
##  7 2010-07-30  0.07450989
##  8 2010-08-31 -0.05611308
##  9 2010-09-30  0.11663624
## 10 2010-10-29  0.05777596
## # ... with 62 more rows

RaRb <- left_join(Ra, Rb, by = c("date" = "date"))
RaRb

## # A tibble: 216 x 4
## # Groups:   symbol [?]
##    symbol       date          Ra          Rb
##     <chr>     <date>       <dbl>       <dbl>
##  1   AAPL 2010-01-29 -0.10256522 -0.09926939
##  2   AAPL 2010-02-26  0.06539603  0.03482850
##  3   AAPL 2010-03-31  0.14847050  0.06839781
##  4   AAPL 2010-04-30  0.11102119  0.01255411
##  5   AAPL 2010-05-28 -0.01612465 -0.07481841
##  6   AAPL 2010-06-30 -0.02082666 -0.05396661
##  7   AAPL 2010-07-30  0.02274065  0.07450989
##  8   AAPL 2010-08-31 -0.05500497 -0.05611308
##  9   AAPL 2010-09-30  0.16721506  0.11663624
## 10   AAPL 2010-10-29  0.06072281  0.05777596
## # ... with 206 more rows
…
Individual Assets

args(SharpeRatio)

## function (R, Rf = 0, p = 0.95, FUN = c("StdDev", "VaR", "ES"), 
##     weights = NULL, annualize = FALSE, ...) 
## NULL

stock_prices <- c("AAPL", "GOOG", "NFLX") %>%
    tq_get(get  = "stock.prices",
           from = "2010-01-01",
           to   = "2015-12-31")
stock_prices

## # A tibble: 4,527 x 8
##    symbol       date   open   high    low    close    volume adjusted
##     <chr>     <date>  <dbl>  <dbl>  <dbl>    <dbl>     <dbl>    <dbl>
##  1   AAPL 2010-01-04 33.891 34.061 33.724 30.57286 123432400 27.50505
##  2   AAPL 2010-01-05 34.077 34.234 33.862 30.62571 150476200 27.55261
##  3   AAPL 2010-01-06 34.042 34.177 33.465 30.13857 138040000 27.11435
##  4   AAPL 2010-01-07 33.624 33.664 33.195 30.08286 119282800 27.06422
##  5   AAPL 2010-01-08 33.394 33.664 33.197 30.28286 111902700 27.24416
##  6   AAPL 2010-01-11 33.791 33.822 33.100 30.01572 115557400 27.00382
##  7   AAPL 2010-01-12 33.217 33.310 32.778 29.67429 148614900 26.69665
##  8   AAPL 2010-01-13 33.008 33.494 32.409 30.09286 151473000 27.07322
##  9   AAPL 2010-01-14 33.364 33.419 33.190 29.91857 108223500 26.91642
## 10   AAPL 2010-01-15 33.494 33.600 32.690 29.41857 148516900 26.46660
## # ... with 4,517 more rows

stock_returns_monthly <- stock_prices %>%
    group_by(symbol) %>%
    tq_transmute(select     = adjusted, 
                 mutate_fun = periodReturn, 
                 period     = "monthly", 
                 col_rename = "Ra")
stock_returns_monthly

## # A tibble: 216 x 3
## # Groups:   symbol [3]
##    symbol       date          Ra
##     <chr>     <date>       <dbl>
##  1   AAPL 2010-01-29 -0.10256522
##  2   AAPL 2010-02-26  0.06539603
##  3   AAPL 2010-03-31  0.14847050
##  4   AAPL 2010-04-30  0.11102119
##  5   AAPL 2010-05-28 -0.01612465
##  6   AAPL 2010-06-30 -0.02082666
##  7   AAPL 2010-07-30  0.02274065
##  8   AAPL 2010-08-31 -0.05500497
##  9   AAPL 2010-09-30  0.16721506
## 10   AAPL 2010-10-29  0.06072281
## # ... with 206 more rows
…
Portfolios

stock_returns_monthly <- c("AAPL", "GOOG", "NFLX") %>%
    tq_get(get  = "stock.prices",
           from = "2010-01-01",
           to   = "2015-12-31") %>%
    group_by(symbol) %>%
    tq_transmute(select     = adjusted, 
                 mutate_fun = periodReturn, 
                 period     = "monthly", 
                 col_rename = "Ra")
stock_returns_monthly

## # A tibble: 216 x 3
## # Groups:   symbol [3]
##    symbol       date          Ra
##     <chr>     <date>       <dbl>
##  1   AAPL 2010-01-29 -0.10256522
##  2   AAPL 2010-02-26  0.06539603
##  3   AAPL 2010-03-31  0.14847050
##  4   AAPL 2010-04-30  0.11102119
##  5   AAPL 2010-05-28 -0.01612465
##  6   AAPL 2010-06-30 -0.02082666
##  7   AAPL 2010-07-30  0.02274065
##  8   AAPL 2010-08-31 -0.05500497
##  9   AAPL 2010-09-30  0.16721506
## 10   AAPL 2010-10-29  0.06072281
## # ... with 206 more rows

#1B & 2B
baseline_returns_monthly <- "XLK" %>%
    tq_get(get  = "stock.prices",
           from = "2010-01-01",
           to   = "2015-12-31") %>%
    tq_transmute(select     = adjusted, 
                 mutate_fun = periodReturn, 
                 period     = "monthly", 
                 col_rename = "Rb")
baseline_returns_monthly

## # A tibble: 72 x 2
##          date          Rb
##        <date>       <dbl>
##  1 2010-01-29 -0.09926954
##  2 2010-02-26  0.03482832
##  3 2010-03-31  0.06839775
##  4 2010-04-30  0.01255412
##  5 2010-05-28 -0.07481858
##  6 2010-06-30 -0.05396585
##  7 2010-07-30  0.07450926
##  8 2010-08-31 -0.05611268
##  9 2010-09-30  0.11663631
## 10 2010-10-29  0.05777584
## # ... with 62 more rows

#3A Mehtod

wts <- c(0.5, 0.0, 0.5)
portfolio_returns_monthly <- stock_returns_monthly %>%
    tq_portfolio(assets_col  = symbol, 
                 returns_col = Ra, 
                 weights     = wts, 
                 col_rename  = "Ra")
portfolio_returns_monthly

## # A tibble: 72 x 2
##          date          Ra
##        <date>       <dbl>
##  1 2010-01-29  0.03071071
##  2 2010-02-26  0.06293873
##  3 2010-03-31  0.13040925
##  4 2010-04-30  0.23915512
##  5 2010-05-28  0.06821982
##  6 2010-06-30 -0.02188244
##  7 2010-07-30 -0.02723290
##  8 2010-08-31  0.11648593
##  9 2010-09-30  0.25123936
## 10 2010-10-29  0.06742980
## # ... with 62 more rows
…
## # A tibble: 2 x 2
##   symbols weights
##     <chr>   <dbl>
## 1    AAPL     0.5
## 2    NFLX     0.5

stock_returns_monthly %>%
    tq_portfolio(assets_col  = symbol, 
                 returns_col = Ra, 
                 weights     = wts_map, 
                 col_rename = "Ra_using_wts_map")

## # A tibble: 72 x 2
##          date Ra_using_wts_map
##        <date>            <dbl>
##  1 2010-01-29       0.03071071
##  2 2010-02-26       0.06293873
##  3 2010-03-31       0.13040925
##  4 2010-04-30       0.23915512
##  5 2010-05-28       0.06821982
##  6 2010-06-30      -0.02188244
##  7 2010-07-30      -0.02723290
##  8 2010-08-31       0.11648593
##  9 2010-09-30       0.25123936
## 10 2010-10-29       0.06742980
## # ... with 62 more rows

wts <- c(0.5, 0.0, 0.5)

#3B: Merging Ra and Rb

RaRb_single_portfolio <- left_join(portfolio_returns_monthly, 
                                   baseline_returns_monthly,
                                   by = "date")
RaRb_single_portfolio

## # A tibble: 72 x 3
##          date          Ra          Rb
##        <date>       <dbl>       <dbl>
##  1 2010-01-29  0.03071071 -0.09926954
##  2 2010-02-26  0.06293873  0.03482832
##  3 2010-03-31  0.13040925  0.06839775
##  4 2010-04-30  0.23915512  0.01255412
##  5 2010-05-28  0.06821982 -0.07481858
##  6 2010-06-30 -0.02188244 -0.05396585
##  7 2010-07-30 -0.02723290  0.07450926
##  8 2010-08-31  0.11648593 -0.05611268
##  9 2010-09-30  0.25123936  0.11663631
## 10 2010-10-29  0.06742980  0.05777584
## # ... with 62 more rows
…
stock_returns_monthly_multi <- stock_returns_monthly %>%
    tq_repeat_df(n = 3)

## Ungrouping data frame groups: symbol

stock_returns_monthly_multi

## # A tibble: 648 x 4
## # Groups:   portfolio [3]
##    portfolio symbol       date          Ra
##        <int>  <chr>     <date>       <dbl>
##  1         1   AAPL 2010-01-29 -0.10256522
##  2         1   AAPL 2010-02-26  0.06539603
##  3         1   AAPL 2010-03-31  0.14847050
##  4         1   AAPL 2010-04-30  0.11102119
##  5         1   AAPL 2010-05-28 -0.01612465
##  6         1   AAPL 2010-06-30 -0.02082666
##  7         1   AAPL 2010-07-30  0.02274065
##  8         1   AAPL 2010-08-31 -0.05500497
##  9         1   AAPL 2010-09-30  0.16721506
## 10         1   AAPL 2010-10-29  0.06072281
## # ... with 638 more rows
…
portfolio_returns_monthly_multi <- stock_returns_monthly_multi %>%
    tq_portfolio(assets_col  = symbol, 
                 returns_col = Ra, 
                 weights     = weights_table, 
                 col_rename  = "Ra")
portfolio_returns_monthly_multi

## # A tibble: 216 x 3
## # Groups:   portfolio [3]
##    portfolio       date            Ra
##        <int>     <date>         <dbl>
##  1         1 2010-01-29 -0.0489018251
##  2         1 2010-02-26  0.0482132162
##  3         1 2010-03-31  0.1233849064
##  4         1 2010-04-30  0.1446899619
##  5         1 2010-05-28  0.0245280460
##  6         1 2010-06-30 -0.0307680915
##  7         1 2010-07-30  0.0006000482
##  8         1 2010-08-31  0.0474359492
##  9         1 2010-09-30  0.2222062908
## 10         1 2010-10-29  0.0788976390
## # ... with 206 more rows

RaRb_multiple_portfolio <- left_join(portfolio_returns_monthly_multi, 
                                     baseline_returns_monthly,
                                     by = "date")
RaRb_multiple_portfolio

## # A tibble: 216 x 4
## # Groups:   portfolio [?]
##    portfolio       date            Ra          Rb
##        <int>     <date>         <dbl>       <dbl>
##  1         1 2010-01-29 -0.0489018251 -0.09926954
##  2         1 2010-02-26  0.0482132162  0.03482832
##  3         1 2010-03-31  0.1233849064  0.06839775
##  4         1 2010-04-30  0.1446899619  0.01255412
##  5         1 2010-05-28  0.0245280460 -0.07481858
##  6         1 2010-06-30 -0.0307680915 -0.05396585
##  7         1 2010-07-30  0.0006000482  0.07450926
##  8         1 2010-08-31  0.0474359492 -0.05611268
##  9         1 2010-09-30  0.2222062908  0.11663631
## 10         1 2010-10-29  0.0788976390  0.05777584
## # ... with 206 more rows
…
## Warning in to_period(xx, period = on.opts[[period]], ...): missing values
## removed from data

## Warning in to_period(xx, period = on.opts[[period]], ...): missing values
## removed from data

## Warning in to_period(xx, period = on.opts[[period]], ...): missing values
## removed from data

## Warning in to_period(xx, period = on.opts[[period]], ...): missing values
## removed from data

FANG_annual_returns

## # A tibble: 113 x 3
## # Groups:   symbol [11]
##    symbol       date yearly.returns
##    <fctr>     <date>          <dbl>
##  1  GDAXI 2007-12-28     0.20747838
##  2  GDAXI 2008-12-30    -0.40374251
##  3  GDAXI 2009-12-30     0.23849944
##  4  GDAXI 2010-12-30     0.16059945
##  5  GDAXI 2011-12-30    -0.14692104
##  6  GDAXI 2012-12-28     0.29059652
##  7  GDAXI 2013-12-30     0.25481748
##  8  GDAXI 2014-12-30     0.02652698
##  9  GDAXI 2015-12-30     0.09560504
## 10  GDAXI 2016-12-30     0.06870049
## # ... with 103 more rows
…
## Warning in fun_transmute(., OHLC = FALSE, ...): missing values removed from
## data

## Warning in fun_transmute(., OHLC = FALSE, ...): missing values removed from
## data

## Warning in fun_transmute(., OHLC = FALSE, ...): missing values removed from
## data

## Warning in fun_transmute(., OHLC = FALSE, ...): missing values removed from
## data

## # A tibble: 1,306 x 7
## # Groups:   symbol [11]
##    symbol       date    open    high     low   close volume
##    <fctr>     <date>   <dbl>   <dbl>   <dbl>   <dbl>  <dbl>
##  1  GDAXI 2007-01-31 6772.83 6805.09 6758.85 6789.11  26047
##  2  GDAXI 2007-02-28 6728.40 6775.52 6640.99 6715.44  26718
##  3  GDAXI 2007-03-30 6903.88 6965.84 6885.58 6917.03  24989
##  4  GDAXI 2007-04-30 7369.24 7436.30 7361.36 7408.87  24303
##  5  GDAXI 2007-05-31 7790.93 7895.71 7790.93 7883.04  26272
##  6  GDAXI 2007-06-29 7947.16 8007.74 7901.60 8007.32  24840
##  7  GDAXI 2007-07-31 7507.96 7632.83 7501.53 7584.14  26453
##  8  GDAXI 2007-08-31 7554.60 7659.72 7536.78 7638.17  25632
##  9  GDAXI 2007-09-28 7850.94 7880.42 7790.23 7861.51  25420
## 10  GDAXI 2007-10-31 7975.02 8027.49 7960.48 8019.22  24741
## # ... with 1,296 more rows
…
## Warning in to_period(xx, period = on.opts[[period]], ...): missing values
## removed from data

#Next, join the asset returns with the baseline returns by date.

returns_joined <- left_join(FANG_returns_monthly, 
                            baseline_returns_monthly,
                            by = "date")
returns_joined

## # A tibble: 1,306 x 4
## # Groups:   symbol [?]
##    symbol       date monthly.returns.x monthly.returns.y
##    <fctr>     <date>             <dbl>             <dbl>
##  1  GDAXI 2007-01-31       0.016161937       0.016161934
##  2  GDAXI 2007-02-28      -0.010851201      -0.010851190
##  3  GDAXI 2007-03-30       0.030018882       0.030018859
##  4  GDAXI 2007-04-30       0.071105662       0.071105713
##  5  GDAXI 2007-05-31       0.064000313       0.064000302
##  6  GDAXI 2007-06-29       0.015765491       0.015765464
##  7  GDAXI 2007-07-31      -0.052849143      -0.052849105
##  8  GDAXI 2007-08-31       0.007124077       0.007124049
##  9  GDAXI 2007-09-28       0.029239988       0.029239968
## 10  GDAXI 2007-10-31       0.020061032       0.020061089
## # ... with 1,296 more rows
…
##Example 4: Use TTR MACD to Visualize Moving Average Convergence Divergence

FANG_macd <- quotes %>%
    group_by(symbol) %>%
    tq_mutate(select = close,
              mutate_fun = MACD,
              nFast = 12,
              nSlow = 26,
              nSig = 9,
              maType = SMA) %>%
    mutate(diff = macd - signal) %>%
    select(-(open:volume))
FANG_macd

## # A tibble: 22,097 x 6
## # Groups:   symbol [9]
##    symbol       date adjusted  macd signal  diff
##    <fctr>     <date>    <dbl> <dbl>  <dbl> <dbl>
##  1 BIO.DE 2007-01-02 8.264379    NA     NA    NA
##  2 BIO.DE 2007-01-03 8.475244    NA     NA    NA
##  3 BIO.DE 2007-01-04 8.536567    NA     NA    NA
##  4 BIO.DE 2007-01-05 8.912829    NA     NA    NA
##  5 BIO.DE 2007-01-08 9.019623    NA     NA    NA
##  6 BIO.DE 2007-01-09 9.206392    NA     NA    NA
##  7 BIO.DE 2007-01-10 8.806115    NA     NA    NA
##  8 BIO.DE 2007-01-11 8.939567    NA     NA    NA
##  9 BIO.DE 2007-01-12 8.966227    NA     NA    NA
## 10 BIO.DE 2007-01-15 8.899540    NA     NA    NA
## # ... with 22,087 more rows
…
FANG_macd <- quotes %>%
    group_by(symbol) %>%
    tq_mutate(select     = close, 
              mutate_fun = RSI, 
              n          = 14, 
              maType     = SMA) 

FANG_macd

## # A tibble: 22,097 x 9
## # Groups:   symbol [9]
##    symbol       date   open   high    low   close volume adjusted   SMA
##    <fctr>     <date>  <dbl>  <dbl>  <dbl>   <dbl>  <dbl>    <dbl> <dbl>
##  1 BIO.DE 2007-01-02 12.383 12.895 12.383 10.3233   2260 8.264379    NA
##  2 BIO.DE 2007-01-03 12.983 13.303 12.983 10.5867   7504 8.475244    NA
##  3 BIO.DE 2007-01-04 13.282 13.324 13.074 10.6633   4734 8.536567    NA
##  4 BIO.DE 2007-01-05 13.740 14.069 13.462 11.1333   9739 8.912829    NA
##  5 BIO.DE 2007-01-08 14.153 14.157 13.803 11.2667   4538 9.019623    NA
##  6 BIO.DE 2007-01-09 14.074 14.573 14.074 11.5000  10511 9.206392    NA
##  7 BIO.DE 2007-01-10 14.365 14.365 13.740 11.0000  10983 8.806115    NA
##  8 BIO.DE 2007-01-11 13.740 13.949 13.491 11.1667  11300 8.939567    NA
##  9 BIO.DE 2007-01-12 13.949 14.157 13.949 11.2000    931 8.966227    NA
## 10 BIO.DE 2007-01-15 13.949 14.157 13.824 11.1167   3045 8.899540    NA
## # ... with 22,087 more rows
…
